module gitlab.com/gitlab-org/opstrace/opstrace/clickhouse-operator

go 1.20

replace gitlab.com/gitlab-org/opstrace/opstrace/go => ../go

// Temporary workaround, until https://github.com/kubernetes-sigs/kustomize/pull/5055
// gets merged and new release is made
replace (
	sigs.k8s.io/kustomize/api => gitlab.com/gitlab-org/opstrace/kustomize/api v0.0.0-20231012192427-65bdf61d8949
	sigs.k8s.io/kustomize/kyaml => gitlab.com/gitlab-org/opstrace/kustomize/kyaml v0.0.0-20231012192427-65bdf61d8949
)

// Required by Jaeger-operator:
replace (
	github.com/HdrHistogram/hdrhistogram-go => github.com/HdrHistogram/hdrhistogram-go v1.1.2
	github.com/codahale/hdrhistogram => github.com/HdrHistogram/hdrhistogram-go v0.9.0
)

require (
	aqwari.net/xml v0.0.0-20210331023308-d9421b293817
	github.com/ClickHouse/clickhouse-go/v2 v2.13.0
	github.com/cert-manager/cert-manager v1.8.0
	github.com/davecgh/go-spew v1.1.1
	github.com/go-logr/logr v1.2.4
	github.com/imdario/mergo v0.3.16
	github.com/onsi/ginkgo/v2 v2.11.0
	github.com/onsi/gomega v1.27.10
	github.com/stretchr/testify v1.8.4
	gitlab.com/gitlab-org/opstrace/opstrace/go v0.0.0-00010101000000-000000000000
	go.uber.org/automaxprocs v1.5.2
	go.uber.org/zap v1.25.0
	k8s.io/api v0.28.2
	k8s.io/apiextensions-apiserver v0.28.2
	k8s.io/apimachinery v0.28.2
	k8s.io/client-go v0.28.2
	k8s.io/kubectl v0.28.2
	k8s.io/utils v0.0.0-20230726121419-3b25d923346b
	sigs.k8s.io/controller-runtime v0.16.2
)

require (
	github.com/Azure/go-ansiterm v0.0.0-20230124172434-306776ec8161 // indirect
	github.com/ClickHouse/ch-go v0.57.0 // indirect
	github.com/MakeNowJust/heredoc v1.0.0 // indirect
	github.com/Microsoft/go-winio v0.6.1 // indirect
	github.com/andybalholm/brotli v1.0.5 // indirect
	github.com/beorn7/perks v1.0.1 // indirect
	github.com/cenkalti/backoff/v4 v4.2.1 // indirect
	github.com/cespare/xxhash/v2 v2.2.0 // indirect
	github.com/chai2010/gettext-go v1.0.2 // indirect
	github.com/containerd/containerd v1.6.19 // indirect
	github.com/cpuguy83/dockercfg v0.3.1 // indirect
	github.com/docker/distribution v2.8.2+incompatible // indirect
	github.com/docker/docker v24.0.2+incompatible // indirect
	github.com/docker/go-connections v0.4.0 // indirect
	github.com/docker/go-units v0.5.0 // indirect
	github.com/emicklei/go-restful/v3 v3.11.0 // indirect
	github.com/evanphx/json-patch v5.6.0+incompatible // indirect
	github.com/evanphx/json-patch/v5 v5.7.0 // indirect
	github.com/exponent-io/jsonpath v0.0.0-20210407135951-1de76d718b3f // indirect
	github.com/fatih/camelcase v1.0.0 // indirect
	github.com/fsnotify/fsnotify v1.6.0 // indirect
	github.com/go-errors/errors v1.4.2 // indirect
	github.com/go-faster/city v1.0.1 // indirect
	github.com/go-faster/errors v0.6.1 // indirect
	github.com/go-logr/zapr v1.2.4 // indirect
	github.com/go-openapi/jsonpointer v0.20.0 // indirect
	github.com/go-openapi/jsonreference v0.20.2 // indirect
	github.com/go-openapi/swag v0.22.4 // indirect
	github.com/go-task/slim-sprig v0.0.0-20230315185526-52ccab3ef572 // indirect
	github.com/gogo/protobuf v1.3.2 // indirect
	github.com/golang/groupcache v0.0.0-20210331224755-41bb18bfe9da // indirect
	github.com/golang/protobuf v1.5.3 // indirect
	github.com/google/btree v1.1.2 // indirect
	github.com/google/gnostic-models v0.6.8 // indirect
	github.com/google/go-cmp v0.6.0 // indirect
	github.com/google/gofuzz v1.2.0 // indirect
	github.com/google/pprof v0.0.0-20230222194610-99052d3372e7 // indirect
	github.com/google/shlex v0.0.0-20191202100458-e7afc7fbc510 // indirect
	github.com/google/uuid v1.3.1 // indirect
	github.com/gregjones/httpcache v0.0.0-20190611155906-901d90724c79 // indirect
	github.com/inconshreveable/mousetrap v1.1.0 // indirect
	github.com/josharian/intern v1.0.0 // indirect
	github.com/json-iterator/go v1.1.12 // indirect
	github.com/klauspost/compress v1.16.7 // indirect
	github.com/liggitt/tabwriter v0.0.0-20181228230101-89fcab3d43de // indirect
	github.com/magiconair/properties v1.8.7 // indirect
	github.com/mailru/easyjson v0.7.7 // indirect
	github.com/matttproud/golang_protobuf_extensions v1.0.4 // indirect
	github.com/mitchellh/go-wordwrap v1.0.1 // indirect
	github.com/moby/patternmatcher v0.5.0 // indirect
	github.com/moby/spdystream v0.2.0 // indirect
	github.com/moby/sys/sequential v0.5.0 // indirect
	github.com/moby/term v0.5.0 // indirect
	github.com/modern-go/concurrent v0.0.0-20180306012644-bacd9c7ef1dd // indirect
	github.com/modern-go/reflect2 v1.0.2 // indirect
	github.com/monochromegane/go-gitignore v0.0.0-20200626010858-205db1a8cc00 // indirect
	github.com/morikuni/aec v1.0.0 // indirect
	github.com/munnerz/goautoneg v0.0.0-20191010083416-a7dc8b61c822 // indirect
	github.com/opencontainers/go-digest v1.0.0 // indirect
	github.com/opencontainers/image-spec v1.1.0-rc4 // indirect
	github.com/opencontainers/runc v1.1.7 // indirect
	github.com/paulmach/orb v0.10.0 // indirect
	github.com/peterbourgon/diskv v2.0.1+incompatible // indirect
	github.com/pierrec/lz4/v4 v4.1.18 // indirect
	github.com/pkg/errors v0.9.1 // indirect
	github.com/pmezard/go-difflib v1.0.0 // indirect
	github.com/prometheus/client_golang v1.17.0 // indirect
	github.com/prometheus/client_model v0.5.0 // indirect
	github.com/prometheus/common v0.44.0 // indirect
	github.com/prometheus/procfs v0.12.0 // indirect
	github.com/russross/blackfriday/v2 v2.1.0 // indirect
	github.com/segmentio/asm v1.2.0 // indirect
	github.com/shopspring/decimal v1.3.1 // indirect
	github.com/sirupsen/logrus v1.9.3 // indirect
	github.com/spf13/cobra v1.7.0 // indirect
	github.com/spf13/pflag v1.0.5 // indirect
	github.com/testcontainers/testcontainers-go v0.20.1 // indirect
	github.com/xlab/treeprint v1.2.0 // indirect
	go.opentelemetry.io/otel v1.16.0 // indirect
	go.opentelemetry.io/otel/trace v1.16.0 // indirect
	go.starlark.net v0.0.0-20230525235612-a134d8f9ddca // indirect
	go.uber.org/multierr v1.11.0 // indirect
	golang.org/x/exp v0.0.0-20231006140011-7918f672742d // indirect
	golang.org/x/mod v0.13.0 // indirect
	golang.org/x/net v0.17.0 // indirect
	golang.org/x/oauth2 v0.13.0 // indirect
	golang.org/x/sync v0.4.0 // indirect
	golang.org/x/sys v0.13.0 // indirect
	golang.org/x/term v0.13.0 // indirect
	golang.org/x/text v0.13.0 // indirect
	golang.org/x/time v0.3.0 // indirect
	golang.org/x/tools v0.14.0 // indirect
	gomodules.xyz/jsonpatch/v2 v2.4.0 // indirect
	google.golang.org/appengine v1.6.8 // indirect
	google.golang.org/genproto/googleapis/rpc v0.0.0-20230731190214-cbb8c96f2d6d // indirect
	google.golang.org/grpc v1.57.0 // indirect
	google.golang.org/protobuf v1.31.0 // indirect
	gopkg.in/inf.v0 v0.9.1 // indirect
	gopkg.in/yaml.v2 v2.4.0 // indirect
	gopkg.in/yaml.v3 v3.0.1 // indirect
	k8s.io/cli-runtime v0.28.2 // indirect
	k8s.io/component-base v0.28.2 // indirect
	k8s.io/klog/v2 v2.100.1 // indirect
	k8s.io/kube-openapi v0.0.0-20231010175941-2dd684a91f00 // indirect
	sigs.k8s.io/gateway-api v0.4.1 // indirect
	sigs.k8s.io/json v0.0.0-20221116044647-bc3834ca7abd // indirect
	sigs.k8s.io/kustomize/api v0.13.5-0.20230601165947-6ce0bf390ce3 // indirect
	sigs.k8s.io/kustomize/kyaml v0.14.3 // indirect
	sigs.k8s.io/structured-merge-diff/v4 v4.3.0 // indirect
	sigs.k8s.io/yaml v1.3.0 // indirect
)
